{
    "EN" : {
      "200" :"Success",
      "403" :"Session expired",
      "404" :"Not found",
      "500" :"Generic error"
    },   
    "en" : {
      "200" :"Successful",
      "201" :"Value added successfully",
      "202" :"Successfully sent",
      "203" :"Match found",
      "303" :"Required field not found",
      "400" :"Please try again",
      "404" :"Some error occured",
      "405" :"Some error occured during updation",
      "503" :"Requested details Not found",
      "504" :"User details Not found",
      "600" :"Generic Error",
      "601" :"Session Expired",
      "1001":"Account with this email already exists"
    }

}
